{
  "type": "service_account",
  "project_id": "dfsmartiot",
  "private_key_id": "608f89f1133b07363f558e632e2ea50b40bdb43c",
  "private_key": "-----BEGIN PRIVATE KEY-----\nMIIEvQIBADANBgkqhkiG9w0BAQEFAASCBKcwggSjAgEAAoIBAQCw3SHUTQW2hEu5\nWJPKty4uenfuEFoUX3OoYJOWeNv4SzvOFTQPVZ217NndMq7EL3JXPBwxNCH3HriN\nSXkbd9rftezqWksf+EPc7isl5Z8sNplmpZRzC3aOReoZ4QasmZhv21Er9aMtG3rW\nGnP5pn0J+5sZsmJMPfiViJ14DUxjpz4gPb51RPTzFhN23zg+dcuEq3Hv0BZShH5j\nBl5VkMvWyq9G0S2R5+oappApSW0kVc1NvW//6IuPseq+gS6TcUcJvQZvCZVq0wZr\nb2gLhSlLxMs+fwAT/9D//jsK9yxmWJpKNbxfbtplaX8tbvBQWoA8gyxpUWCnJj8k\nQeAcUsKvAgMBAAECggEAAjWmSbPsAbxCfyBGlRaZfIQMviz6b7EmchyR91dTvgZM\nFBqdn9fRvMSF2I0MPvWURgrBZGHcMem3+9BY9WaQQaslFASAkLXXAi0ALhzWwE9T\ng2CQkDsYXB77dKoys2QI70kKtQKWXJ9upp4GEoZc0lE8HWAOapV0eTLN3LW177Pn\nZLFL+fjdd/n3hB43Pkk6huuBl8CW6+Zp95GH7VL+iaeztGoeOfcQdE2hByGMaIC+\nQmbOkMI06MfptB9i/H7gBsEz7z3pxON0eLjlPEG5C2cwx14xvnDZ8RJg9ubYO/MQ\nMoLH9XT+JIGNS5BVMQSss46VFK8xlxDzW9g0QB4LKQKBgQDcFDYctgiHrQMsfXFA\nZfC0W5OWMu2FCiEnUiizGiMkCDHxbfHsCQ2Lg04snePimzDS2HJkOExCafpvzPzg\nBRn4F6bOlZeQM2W9B0S1Bzw8VE4NM85H4smF1zX/OwZfaM7Q1gHI9sm9ydpRecAx\n630g5YB2xzJBDWOrj+LKDYdIaQKBgQDNuzeGSDUzS96Twoz3OpKe1/xCVB17iH8X\n0qnKH9y0gh5pRiJEGo4ifQ4VoYXtBPMkSu2YVvbs1Dgjs77Sgyn9xZyUcq7XCzCr\nDcqGz7T+GzDhQJkwjw8XIgSErwODkGrjuMO9KYTSdNJBK/m6EC6muu+NrPhg2pFu\nNUzmOeMPVwKBgQCYU4D0tGYJCo5Ez/qAOU62dyAa+Nr/l3hFEA/Nj4y9FtMCqTem\nSMnQQ6zrIsmlggb0GQ5sIa9e1J2bnoV0xPMpja1OFapXC8wiXxKGPiDKHQv9BVuE\n1ArqEYB1TTRm+1MSpt2LbI1MSJdMh3mo07bC+zbEf7Ff51WSXL/7XAvD6QKBgCU/\n0ovTox5IjGJAhXl193ofLSNtS3FEg45yrB9WqYVdUdhJxIaEMFv6PISaHD+P994I\nWwCMLmUu/4MnVlOTQBUcpH8UTKfO9N7jvlmuXdzsW2tNYO8z182ecSb88SvvCAt3\nNqmXTN82G6OFLNANggTaL+l8+fO/XzmPGP9OV9g9AoGAL92B0VxQrRQdr6Wv1UZC\neOV7od2kQmKH3zyWzugCWWJ+mEDttglErhuebVRFeWcWyem31/GlN9TMbtndkkkc\nG+CsgINeWO3O00Kp5edC5CCdW0Y+F/HnS+NK2a6Wm2/hyuGnJbPUZlrCFYGsJHHx\nI6iOO5FZksXMGj20liTcn8Y=\n-----END PRIVATE KEY-----\n",
  "client_email": "firebase-adminsdk-kext3@dfsmartiot.iam.gserviceaccount.com",
  "client_id": "105486609055493361297",
  "auth_uri": "https://accounts.google.com/o/oauth2/auth",
  "token_uri": "https://accounts.google.com/o/oauth2/token",
  "auth_provider_x509_cert_url": "https://www.googleapis.com/oauth2/v1/certs",
  "client_x509_cert_url": "https://www.googleapis.com/robot/v1/metadata/x509/firebase-adminsdk-kext3%40dfsmartiot.iam.gserviceaccount.com"
}
